B.6 Bases de datos con dplyr | Introducción al Análisis de Datos con R
…
Para obtener el total de las facturas de cada uno de los países:

res <- invoices %>% group_by(BillingCountry) %>% 
          summarise(n = n(), total = sum(Total, na.rm = TRUE))
show_query(res)

## <SQL>
## SELECT `BillingCountry`, COUNT(*) AS `n`, SUM(`Total`) AS `total`
## FROM `invoices`
## GROUP BY `BillingCountry`

res  %>% collect

## # A tibble: 24 x 3
##    BillingCountry     n total
##    <chr>          <int> <dbl>
##  1 Argentina          7  37.6
##  2 Australia          7  37.6
##  3 Austria            7  42.6
##  4 Belgium            7  37.6
##  5 Brazil            35 190. 
##  6 Canada            56 304. 
##  7 Chile              7  46.6
##  8 Czech Republic    14  90.2
##  9 Denmark            7  37.6
## 10 Finland            7  41.6
## # ... with 14 more rows
…
res <- invoices %>% group_by(BillingCountry) %>% 
          summarise(n = n(), med = mean(Total, na.rm = TRUE)) %>%
          arrange(BillingCountry)
show_query(res)

## <SQL>
## SELECT `BillingCountry`, COUNT(*) AS `n`, AVG(`Total`) AS `med`
## FROM `invoices`
## GROUP BY `BillingCountry`
## ORDER BY `BillingCountry`

res  %>% collect

## # A tibble: 24 x 3
##    BillingCountry     n   med
##    <chr>          <int> <dbl>
##  1 Argentina          7  5.37
##  2 Australia          7  5.37
##  3 Austria            7  6.09
##  4 Belgium            7  5.37
##  5 Brazil            35  5.43
##  6 Canada            56  5.43
##  7 Chile              7  6.66
##  8 Czech Republic    14  6.45
##  9 Denmark            7  5.37
## 10 Finland            7  5.95
## # ... with 14 more rows

Si el resultado lo queremos en orden decreciente por importe de facturación media:

invoices %>% group_by(BillingCountry) %>% 
          summarise(n = n(), med = mean(Total, na.rm = TRUE)) %>%
          arrange(desc(med)) %>% collect

## # A tibble: 24 x 3
##    BillingCountry     n   med
##    <chr>          <int> <dbl>
##  1 Chile              7  6.66
##  2 Ireland            7  6.52
##  3 Hungary            7  6.52
##  4 Czech Republic    14  6.45
##  5 Austria            7  6.09
##  6 Finland            7  5.95
##  7 Netherlands        7  5.80
##  8 India             13  5.79
##  9 USA               91  5.75
## 10 Norway             7  5.66
## # ... with 14 more rows
…
res <- customers %>% inner_join(invoices, by = "CustomerId") %>% select(FirstName, LastName, Country, Total) 
show_query(res)

## <SQL>
## SELECT `FirstName`, `LastName`, `Country`, `Total`
## FROM (SELECT `LHS`.`CustomerId` AS `CustomerId`, `FirstName`, `LastName`, `Company`, `Address`, `City`, `State`, `Country`, `PostalCode`, `Phone`, `Fax`, `Email`, `SupportRepId`, `InvoiceId`, `InvoiceDate`, `BillingAddress`, `BillingCity`, `BillingState`, `BillingCountry`, `BillingPostalCode`, `Total`
## FROM `customers` AS `LHS`
## INNER JOIN `invoices` AS `RHS`
## ON (`LHS`.`CustomerId` = `RHS`.`CustomerId`)
## )

res  %>% collect

## # A tibble: 412 x 4
##    FirstName LastName  Country Total
##    <chr>     <chr>     <chr>   <dbl>
##  1 Luís      Gonçalves Brazil   3.98
##  2 Luís      Gonçalves Brazil   3.96
##  3 Luís      Gonçalves Brazil   5.94
##  4 Luís      Gonçalves Brazil   0.99
##  5 Luís      Gonçalves Brazil   1.98
##  6 Luís      Gonçalves Brazil  13.9 
##  7 Luís      Gonçalves Brazil   8.91
##  8 Leonie    Köhler    Germany  1.98
##  9 Leonie    Köhler    Germany 13.9 
## 10 Leonie    Köhler    Germany  8.91
## # ... with 402 more rows
…
Para listar los géneros musicales por orden decreciente de popularidad (definida la popularidad como el número de canciones de ese género), indicando el porcentaje de las canciones de ese género:

tracks %>% inner_join(tbl(chinook, "genres"), by = "GenreId") %>% count(Name.y) %>% 
    arrange(desc(n)) %>% collect %>% mutate(freq = n / sum(n))

## # A tibble: 25 x 3
##    Name.y                 n   freq
##    <chr>              <int>  <dbl>
##  1 Rock                1297 0.370 
##  2 Latin                579 0.165 
##  3 Metal                374 0.107 
##  4 Alternative & Punk   332 0.0948
##  5 Jazz                 130 0.0371
##  6 TV Shows              93 0.0265
##  7 Blues                 81 0.0231
##  8 Classical             74 0.0211
##  9 Drama                 64 0.0183
## 10 R&B/Soul              61 0.0174
## # ... with 15 more rows

Para listar los 10 artistas con mayor número de canciones de forma descendente según el número de canciones:

tracks %>% inner_join(tbl(chinook, "albums"), by = "AlbumId") %>% 
    inner_join(tbl(chinook, "artists"), by = "ArtistId") %>% 
    count(Name.y) %>% arrange(desc(n)) %>% collect

## # A tibble: 204 x 2
##    Name.y              n
##    <chr>           <int>
##  1 Iron Maiden       213
##  2 U2                135
##  3 Led Zeppelin      114
##  4 Metallica         112
##  5 Lost               92
##  6 Deep Purple        92
##  7 Pearl Jam          67
##  8 Lenny Kravitz      57
##  9 Various Artists    56
## 10 The Office         53
## # ... with 194 more rows
…
